1 10 20
100 200 125
201 210 89
900 1000 174
1 1 1
2 1 2
1 2 2
999999 999999 259
1 837799 525
837799 1 525
1000 10000 262
10000 100000 351
600591 932478 525
577764 558267 421
53294 100751 351
238568 479196 449
127795 853772 525
314488 451012 449
838774 487244 525
927258 131476 525
586536 365456 470
208892 23454 383
99709 465246 449
858995 602155 525
569352 994011 525
75208 727879 509
811281 519534 509
944822 249860 525
906764 849690 445
798037 659060 504
544581 160323 470
766125 95336 509
186892 770718 509
225402 219125 368
852740 180128 525
733169 834620 468
819179 305441 509
749626 925105 525
519146 864620 525
751621 706266 424
447309 117963 449
923374 259424 525
547483 30927 470
653539 450023 509
81154 634110 509
580308 833498 509
115370 268745 443
189631 866737 525
970053 901107 507
123826 575761 470
443145 694667 509
368589 621387 470
725217 75648 509
474597 560816 470
599593 69072 470
821772 457060 509
952440 781252 525
245589 193383 443
413546 111465 449
451115 156688 449
554160 711264 509
550420 197033 470
360189 418184 449
495068 868785 525
963533 177308 525
353214 356449 379
927334 609770 525
312784 532088 470
600607 280979 470
756564 556272 509
523565 198627 470
282356 427752 449
449604 900227 525
644098 225486 509
384585 796223 509
140300 325557 443
463792 982866 525
809711 473181 509
371223 582330 470
916247 299032 525
645843 99732 509
597547 934619 525
595160 501702 470
3079 552422 470
278473 649398 509
884164 904305 445
589556 917943 525
121972 86085 354
234738 979894 525
482697 159738 449
810844 871361 525
238253 672334 509
611158 947670 525
377912 416867 449
928300 875333 476
627551 59343 509
313963 629376 509
528314 622068 452
426136 902203 525
770213 659601 504
143650 809004 509
737398 354001 509
987713 52576 525
24745 948211 525
654317 85968 509
660620 296692 509
403977 777779 509
891198 359772 525
763214 211143 509
920755 966642 507
5041 456776 449
153237 507893 449
465921 594182 470
316142 744609 509
155767 974106 525
179369 948056 525
578400 762550 509
454465 582611 470
359752 328515 441
652887 719538 504
344654 639676 509
856399 868732 388
555124 718927 509
326923 282416 389
179143 933220 525
661539 532438 509
578565 551562 421
886607 812542 525
282827 287730 376
393358 473077 449
698934 845729 525
844180 114308 525
47409 787558 509
576974 220025 470
507817 363023 449
2159 426283 449
843138 306274 525
934272 517211 525
416700 874249 525
470409 677217 509
676258 50694 509
868913 492722 525
856279 338068 525
463991 925609 525
532640 184376 470
151132 49664 375
174890 964114 525
535428 520063 408
288188 276244 389
66451 884196 525
590506 739217 509
145584 339604 443
820567 562484 509
525799 377201 470
378265 806837 509
291897 406709 441
269912 824483 509
621612 226134 470
509280 58461 449
200784 879074 525
632524 19669 509
480756 366667 449
159672 306283 443
831680 331420 509
310984 140535 443
872800 59587 525
986202 123772 525
806168 443995 509
277383 170618 443
405147 502917 449
462003 170464 449
913466 372333 525
701705 207454 509
292854 760957 509
611567 745641 509
899028 806902 525
399906 2173 443
441504 449713 369
96556 593435 470
765613 133605 509
609207 65013 470
713985 443646 509
292431 345705 384
509662 969782 525
992283 343804 525
106872 797266 509
998710 70228 525
433556 54905 449
49223 433204 449
346201 37160 443
746237 368798 509
787111 332860 509
719217 511991 509
863805 361296 525
60930 267312 443
666424 993843 525
178262 752247 509
293616 39587 443
184585 358524 443
232506 936396 525
986225 188337 525
583286 241698 470
447994 190045 449
389395 325785 441
359369 681007 509
946363 736829 525
431956 518968 470
245433 892588 525
926053 625063 525
843141 833886 525
210571 236933 443
145579 778159 509
105789 654584 509
880021 808086 525
605139 906046 525
308024 907120 525
543161 212467 470
487004 758319 509
342329 278040 389
801856 279678 509
759156 127616 509
324358 666399 509
561297 882359 525
751336 797632 468
994219 655263 525
45271 295745 443
683532 845657 525
498747 647051 509
754692 915056 525
701985 822330 504
369684 43831 443
305535 157075 443
41637 90045 351
858982 403949 525
425770 538830 470
7721 20080 279
141634 963648 525
229850 565306 470
485003 235196 449
764990 735810 424
421604 422853 356
977960 213770 525
760385 328595 509
4684 505585 449
287709 45413 443
935494 387467 525
367093 547902 470
350785 154436 443
715878 174793 509
330341 808115 509
370967 214900 443
301162 115812 443
447153 825364 509
602118 837113 509
809225 334809 509
741289 361393 509
699774 209184 509
394895 334226 441
644804 731667 504
957558 902379 507
355871 841086 525
902339 684255 525
453337 66773 449
