1 10 20
100 200 125
201 210 89
900 1000 174
1 999999 525
887890 76139 525
386054 13968 443
126617 123983 318
286177 270194 407
500179 667404 509
773224 623511 509
238816 792363 509
520245 856585 525
493355 896409 525
990464 343226 525
863986 416969 525
801425 267356 509
143321 642679 509
724050 124280 509
296466 161283 443
122796 120542 336
302727 814085 509
978793 742075 525
313261 205754 443
295396 56091 443
666029 723814 504
384218 679265 509
641535 941351 525
194243 811501 509
16957 780727 509
867743 909218 445
338267 770975 509
774698 60832 509
287553 752490 509
252466 365740 441
312537 975850 525
422063 467741 444
753064 810911 468
365841 681236 509
515319 234769 470
388480 162137 443
86287 760686 509
937624 99940 525
172807 249911 443
563365 561659 359
982095 769654 525
66920 578101 470
480963 923473 525
5840 558347 470
642353 124865 509
969179 888534 507
692125 278023 509
359058 309726 441
65213 973020 525
498938 500702 395
8763 588374 470
902871 302747 525
426653 719326 509
778453 987607 525
462721 213173 449
748987 543428 509
858332 425320 525
964764 78812 525
602852 523226 452
412335 347037 449
295937 660714 509
232489 22413 443
552682 151385 470
13136 630458 509
489794 421591 444
343092 453073 449
980330 961588 458
749536 362456 509
675983 979339 525
399101 554613 470
1915 758490 509
787066 869207 525
994558 639368 525
21142 319608 443
541046 998739 525
431780 35011 449
338932 138068 443
852163 202391 525
312475 62689 443
719992 52136 509
708636 518961 509
869759 293822 525
900048 430888 525
948944 442029 525
989538 111974 525
539371 317799 470
922282 700142 525
901601 473770 525
36837 204219 383
823638 110358 509
925788 412384 525
402208 208481 443
907803 353397 525
726957 735583 380
242774 44389 443
427746 436311 387
711155 295787 509
386121 474866 449
22616 607395 470
615169 793479 509
626517 695792 442
304865 885610 525
172003 201424 365
205516 401322 443
269054 1447 443
924319 833510 525
671528 61395 509
289650 223576 443
915535 645227 525
822618 719775 468
289065 375928 441
834346 768439 468
367222 200239 443
759216 344109 509
889962 712302 525
264227 648012 509
914118 341195 525
409539 356189 436
310182 998971 525
421845 487211 444
85865 584496 470
976383 498940 525
86961 77417 338
178845 964225 525
948472 939739 383
989432 952429 458
578809 139539 470
582726 237970 470
46756 847723 525
35591 79523 351
225099 756594 509
431130 827875 509
958447 796567 525
646353 356049 509
709235 271107 509
957826 94397 525
239140 69722 443
39470 241688 443
573986 415192 470
410891 775701 509
846797 158022 525
132120 779277 509
981618 772652 525
594919 205531 470
68484 259127 443
430555 430884 281
985439 152174 525
865189 844256 419
681748 707401 504
426125 378835 449
237034 422214 449
412775 801091 509
331002 319351 384
714138 44623 509
417760 899429 525
73151 557892 470
819564 970026 525
422231 993725 525
364414 417022 449
227060 733007 509
269963 724990 509
333265 751234 509
379073 254416 441
36078 737607 509
168261 648276 509
232843 228977 443
587521 706628 509
501024 333912 449
506851 56313 449
925796 543724 525
108345 620658 470
174593 435107 449
403915 687221 509
973441 561780 525
279752 655731 509
47854 268308 443
744904 655094 504
362014 925104 525
431096 746062 509
435315 752929 509
226017 770910 509
426923 809696 509
340627 265604 407
688806 927211 525
780532 74871 509
612471 880969 525
60246 951278 525
924529 712103 525
796097 536104 509
597766 398209 470
616593 185013 470
15996 47245 324
541928 691655 509
317687 482802 449
975898 823186 525
118438 926212 525
231430 141645 443
577927 744783 509
913871 963415 507
343507 355941 441
