8711 7233 252
8028 6668 257
8884 1055 262
7768 4206 262
2311 1010 183
4449 7040 262
4448 487 238
532 1213 182
6921 3228 262
1237 2679 209
1899 7692 262
486 6041 238
8683 6793 257
80 716 171
4806 1137 238
7850 3478 262
7604 1955 262
6825 8533 257
2416 7532 262
6260 133 262
8949 2 262
1811 3896 238
6822 780 262
4846 3801 215
5137 6302 262
3276 4883 238
133 5820 238
2729 3068 217
3081 561 217
857 583 171
1374 5724 238
3863 5332 215
8665 4261 262
6321 3313 262
6673 6710 138
5820 6084 218
4002 6321 262
7587 6242 257
7935 1514 262
5333 3126 238
4763 7156 262
1747 5620 238
3238 7677 262
1822 3592 217
3880 4120 189
7059 3989 262
3022 8181 262
1396 6649 262
3811 5813 236
8024 8433 234
2750 6867 262
7460 101 262
789 7572 262
987 4347 238
8734 8299 234
2244 2217 183
7465 1102 262
8097 7790 252
6093 3650 238
6375 2951 262
3563 2579 217
913 4815 238
1061 1754 182
5239 7636 262
2579 2020 209
5163 307 238
2948 4122 238
2411 2443 165
7376 7230 195
7399 6300 257
8868 6525 257
2705 6444 262
8354 7435 252
3699 3903 238
8105 5612 262
4770 6096 236
1679 6562 262
6030 6294 262
8419 7364 252
7067 788 262
1156 2671 209
546 240 144
2553 3367 217
6846 5258 262
6674 2884 262
6419 3222 262
7935 1724 262
2989 4556 238
7534 3919 262
2229 3703 217
8062 64 262
6271 4581 262
1702 4340 238
2963 7783 262
5145 2794 238
4672 1956 238
7836 6366 257
1844 5009 238
5718 5435 236
5051 7311 262
5417 5233 192
1099 7286 262
5402 4746 210
5745 351 238
6839 8256 257
2718 4387 238
4728 6654 262
4833 7566 262
7320 7507 239
5423 4991 192
7742 5402 262
7892 6733 257
7799 5836 262
8328 2311 262
5205 661 238
6712 4093 262
1398 2156 180
6769 1051 262
4384 8254 262
561 697 145
6936 1330 262
5985 3012 238
5694 430 238
842 7548 262
8140 6371 257
5009 2906 238
2181 4566 238
4155 8903 262
482 725 171
1142 4291 238
6731 7960 257
8108 7366 252
5452 491 238
1126 3900 238
6112 4092 236
592 8107 262
7595 7401 239
6483 6272 200
7887 847 262
3200 4097 238
7210 7039 195
5196 5506 192
3 244 128
8404 5927 262
2119 3952 238
5779 5633 205
1877 5952 238
7108 6334 257
3744 7952 262
845 4677 238
7309 4356 262
6213 6492 200
3541 2003 217
4940 2860 238
5740 5849 218
5982 7314 262
2223 6845 262
3628 1846 217
8249 4135 262
2051 7154 262
8794 7712 252
190 8872 262
4228 5419 215
4476 8305 262
1979 1875 175
5631 7818 262
1220 7981 262
292 2949 217
7518 5220 262
7239 8058 252
3527 8772 262
7201 8965 252
5745 1728 238
4576 2899 238
561 7748 262
3221 3648 194
8196 4970 262
7400 6486 257
5025 4012 215
1797 1622 180
452 2283 183
6128 2603 238
8196 5441 262
306 7537 262
4492 3783 215
4243 6220 262
7187 1180 262
7918 3538 262
4750 1484 238
1824 1949 175
6850 7463 257
1111 6811 262
5736 5179 236
4664 5650 236
7106 1812 262
7046 3560 262
6143 225 238
6172 2120 262
207 5925 238
5403 1242 238
