70473 596855 470
825357 775643 468
500458 735661 509
118743 418494 449
154581 490064 449
468768 885693 525
404655 657760 509
659604 470882 509
197732 580853 470
956676 535125 525
162551 825424 509
769266 103632 509
750613 897468 525
115848 208620 383
724254 847584 525
945928 832407 525
626617 815418 504
101439 178470 383
664569 962891 525
787511 849511 525
915789 330516 525
402230 311983 441
121782 115377 349
559574 721986 509
750762 713872 424
537722 418982 470
584025 118344 470
810867 283231 509
595582 161361 470
737187 511216 509
392815 795311 509
870562 446719 525
44659 490527 449
757059 447057 509
973835 619769 525
129131 321146 443
435407 322543 449
32956 299123 443
35052 327426 443
644543 968836 525
89303 120438 354
328963 483264 449
505314 779856 509
153259 464482 449
214003 405778 443
853150 697126 525
154623 503066 449
3535 562193 470
222415 545243 470
490688 571843 470
958568 180909 525
338183 11464 443
739678 906159 525
805803 79250 509
343485 740026 509
401764 898066 525
57095 946667 525
196617 564576 470
40977 154776 375
320673 839022 525
651487 437911 509
959635 138971 525
592972 382486 470
487270 549430 470
685238 78905 509
553171 915869 525
163616 890012 525
746379 271122 509
442036 396197 449
38279 366221 443
399026 260420 441
6120 464351 449
549089 648192 509
177464 295572 443
450623 833887 509
258806 590409 470
999967 178926 525
859223 810416 525
774957 657923 504
474145 363680 449
509416 232984 449
128904 840875 525
915037 184780 525
227461 975728 525
154914 2138 375
864565 494439 525
477655 313925 449
57086 989939 525
13866 901116 525
424143 533155 470
716680 917731 525
363489 32771 443
802401 550924 509
5055 204619 383
817344 517113 509
190903 915497 525
700796 973415 525
795609 946167 525
520879 995216 525
288194 814708 509
375990 570302 470
346330 451065 449
689828 804588 504
509438 479580 426
555797 461253 470
203332 299703 443
92901 808620 509
388556 397097 436
429627 927257 525
31232 512521 470
137972 438243 449
644070 88777 509
309875 287244 389
962081 141734 525
898381 979976 507
830796 428686 509
459554 220567 449
80048 2451 351
392392 580282 470
19102 166227 383
382724 798564 509
243452 188305 443
777841 350418 509
865903 268 525
692871 362062 509
144505 994130 525
520609 514414 439
83472 277523 443
548174 51951 470
708538 62044 509
424657 412367 418
301316 581846 470
542856 654721 509
417818 346375 449
123282 362963 443
86188 96125 333
778461 270780 509
961760 654882 525
576111 993502 525
361562 547807 470
720332 234672 509
381939 282320 441
793201 671751 504
247003 175279 443
88929 747491 509
36396 917466 525
78370 486914 449
433327 503142 444
944109 619470 525
879621 157145 525
816052 674302 504
161735 986293 525
3431 336681 443
337308 97327 443
904204 434614 525
102734 493882 449
951872 779042 525
664397 856518 525
477697 90427 449
47764 105279 351
217418 32560 386
638806 217848 509
433832 859949 525
623726 950985 525
63555 743440 509
702699 334456 509
43384 177483 383
339699 199277 443
560884 750194 509
220930 818163 509
549548 981585 525
625569 481481 470
625100 274047 470
91507 123530 354
830778 641869 504
819534 495545 509
367735 173091 443
42393 649438 509
44876 96414 351
600460 591469 403
494380 156956 449
762803 415564 509
834063 232133 509
268184 63238 443
365704 301097 441
542836 234375 470
447846 662108 509
755828 766555 380
691326 639712 442
962441 460046 525
507811 93149 449
237135 864345 525
974095 513827 525
938137 283141 525
146719 872814 525
43428 674439 509
814037 379482 509
779936 531526 509
823574 760793 468
23262 262863 443
115827 322256 443
492940 197695 449
559467 700214 509
542354 842669 525
208861 38104 383
889747 199044 525
601682 680208 509
634548 281051 509
87493 455856 449
341528 84900 443
483588 468272 413
537337 432161 470
163806 865622 525
384883 62754 443
77423 559743 470
415723 12585 449
98395 205749 383
246793 275825 407
138757 909953 525
651977 358712 509
119867 140785 344
534156 30749 470
505932 917179 525
765840 265037 509
185695 17786 383
12497 643360 509
168219 294093 443
373696 120457 443
36131 127723 354
578622 86428 470
861754 614128 525
12087 556829 470
340307 512207 470
277268 991895 525
317609 963161 525
836764 607372 509
179229 605335 470
505356 677502 509
205829 225412 386
606736 237874 470
511822 933762 525
274741 695669 509
724964 719500 411
981858 333174 525
373445 618156 470
477203 219004 449
861441 214904 525
864611 560691 525
942826 424670 525
792841 884885 525
283423 946072 525
681059 63761 509
732610 818781 468
223905 389640 443
535603 836494 509
838418 960209 507
733118 336729 509
854900 747636 525
36994 725204 509
347707 20536 443
639366 319143 509
31822 776746 509
910576 945775 507
691840 415685 509
423592 719745 509
243370 718864 509
522651 752248 509
663333 337193 509
625387 492176 470
542703 132796 470
262224 195026 443
429061 840179 525
785806 309430 509
817520 645550 504
213645 481552 449
312871 575589 470
70545 251142 443
186922 550750 470
33914 562868 470
758002 606579 509
480333 587159 470
544245 513226 439
371173 328643 441
610915 328654 470
115689 783248 509
671075 58327 509
103928 988016 525
34093 400999 443
797766 265107 509
308077 21811 443
144027 414932 449
138664 29520 354
828215 254067 509
16861 299428 443
130144 405913 443
772766 286657 509
325782 869610 525
844471 371874 525
345681 158014 443
964406 890490 507
