451110 978424 525
324437 352386 441
732128 446369 509
426542 791734 509
961128 101504 525
607884 359614 470
498315 569685 470
184768 108250 383
728778 155855 509
542076 190690 470
94461 833803 509
448134 169876 449
860308 915946 476
495624 564860 470
610809 588301 403
815684 631742 504
271633 688688 509
763812 847811 525
750818 503008 509
39343 441854 449
802383 247834 509
675480 32730 509
246462 231554 381
175409 453954 449
323930 276157 389
745277 258380 509
632884 601579 509
581794 458243 470
304516 939076 525
376253 907599 525
543950 905358 525
534032 275331 470
834464 853368 525
986134 523779 525
127160 768918 509
393336 604368 470
252098 205114 443
501592 452658 444
147198 366315 443
486154 518913 470
17344 22917 279
940258 213711 525
704273 483949 509
618216 674485 509
577139 609838 434
932328 633 525
299842 800693 509
367910 997785 525
458486 954725 525
928623 448503 525
684293 60120 509
925387 988128 507
52133 494451 449
740879 547258 509
367023 15333 443
166991 552906 470
641375 490620 509
976560 764128 525
938424 47460 525
533530 6239 470
220933 61500 386
726989 519597 509
798329 448598 509
382219 677939 509
290616 54155 443
485491 476241 413
721647 377977 509
611438 568674 434
169822 924571 525
868226 743591 525
31094 743875 509
683460 102930 509
501468 974838 525
768042 803377 468
760269 559780 509
699711 105333 509
993373 524546 525
967151 884767 507
697240 884614 525
511746 291526 449
435977 536383 470
33062 494855 449
883608 808718 525
787620 266121 509
465486 768516 509
150517 30187 375
218101 728090 509
205294 728909 509
884379 838343 432
787478 965368 525
196405 582978 470
622232 63787 470
708255 968660 525
309651 394691 441
473985 423960 444
278415 788165 509
919886 13138 525
590923 201611 470
724902 20458 509
854386 814794 525
12763 244420 443
624491 208508 470
596753 682173 509
409743 251950 441
105599 400707 443
231606 504872 449
987602 198737 525
144234 1524 375
215472 854278 525
28029 994765 525
477529 470945 382
83447 790053 509
419690 735707 509
582951 44051 470
936508 844833 476
285338 344408 389
722345 715117 411
404266 3084 443
681518 661888 442
443310 178858 449
66732 665534 509
42511 155701 375
43465 672741 509
146426 203845 383
326196 219179 443
150961 167857 383
979973 330356 525
659645 984986 525
599490 68845 470
881534 41938 525
784638 234120 509
133538 636648 509
36763 708180 509
249652 262737 363
344433 257336 407
300044 110133 443
97351 267404 443
599461 544659 452
621310 783699 509
327947 772497 509
392590 129369 443
124851 910820 525
296615 507942 449
941989 242968 525
829177 153436 509
869908 970492 507
242959 688498 509
777102 478830 509
248726 171149 443
562254 118591 470
717244 47608 509
907311 356930 525
241396 543872 470
848827 837686 525
527062 624239 452
352162 728397 509
767522 46755 509
997126 447512 525
389285 110985 443
804019 943506 525
22708 48763 324
205932 228486 386
370581 509748 449
162272 209309 373
184830 30828 383
675068 167752 509
94901 91861 315
177178 574214 470
795350 827184 468
490007 39890 449
942259 1036 525
557058 856877 525
565973 659228 509
313007 413251 449
407329 476340 449
728876 575549 509
795286 63520 509
316555 231138 407
317875 688609 509
769438 909034 525
800246 987781 525
20801 162849 383
65854 100513 351
634449 635573 416
290962 57262 443
795643 76828 509
207674 855870 525
259503 357412 441
691979 464025 509
278258 390232 441
940801 643832 525
26003 999052 525
772484 984669 525
913845 873414 476
610765 422349 470
142027 817545 509
204194 614892 470
77347 694527 509
676413 610163 509
141145 328002 443
762443 418192 509
193516 464263 449
880208 285914 525
846125 719527 525
585511 911598 525
249875 332619 407
15079 991723 525
818988 462836 509
120162 207624 383
274414 518117 470
95559 396813 443
589292 813357 509
563687 723828 509
741028 445205 509
920020 969437 507
648565 930 509
974565 394088 525
228013 242823 443
615575 552243 447
523456 984938 525
463822 335472 449
682070 277201 509
863097 70369 525
128123 833129 509
487955 18995 449
573114 185203 470
515077 633268 509
484675 184203 449
503464 453811 444
960649 304983 525
64361 681395 509
496745 35208 449
386182 848459 525
734212 82896 509
906037 203933 525
50925 203168 383
119203 795441 509
498302 172636 449
504409 826861 509
756805 643806 504
911931 427827 525
496476 135076 449
523307 165143 470
156310 879895 525
384202 242747 441
799317 640569 504
434206 138633 449
839609 37418 525
9231 875789 525
260723 72662 443
94860 190381 383
904183 207998 525
727563 321221 509
663888 798050 504
36461 897059 525
239949 612040 470
712575 698460 504
394073 685804 509
520669 730505 509
954857 120453 525
11505 906210 525
724366 524463 509
130201 714933 509
68458 115769 354
715751 3650 509
385023 709069 509
827586 605558 509
486691 234552 449
762473 651202 504
857616 316566 525
667288 804952 504
47192 269979 443
351939 719298 509
160565 973376 525
124031 745374 509
397118 35912 443
190464 147834 383
874102 404589 525
7165 635144 509
779391 266860 509
