641286 515818 509
441141 417948 418
544524 785224 509
444024 607580 470
348073 834400 509
579959 751213 509
203643 750919 509
727680 620899 509
284401 476404 449
104576 500892 449
513616 138007 470
160682 758737 509
483230 841856 525
238710 549935 470
342597 401077 441
382200 146886 443
507517 93293 449
575038 189579 470
801199 769421 468
682024 105351 509
295754 417539 449
577342 462266 470
797935 69855 509
925922 628270 525
422170 167005 449
295650 747457 509
995288 467503 525
248917 288317 407
976774 283511 525
693350 405487 509
821914 203232 509
155064 100315 375
698675 496297 509
618510 465075 470
526315 709096 509
195081 57250 383
515015 522239 439
753652 155832 509
227517 659812 509
931463 603605 525
172598 612843 470
587726 702759 509
967934 425804 525
857600 98655 525
662568 88954 509
354343 880626 525
89362 633234 509
298650 618285 470
209174 192232 373
691108 940341 525
552314 229486 470
31419 752473 509
70059 307317 443
182825 886184 525
367697 239240 441
65424 807732 509
507786 56669 449
337638 177193 443
659178 50947 509
42969 134714 354
405242 360502 436
83403 388661 443
520233 907519 525
113445 310904 443
272913 88590 443
968714 65449 525
180579 717498 509
393299 722369 509
200904 797045 509
377300 278131 441
493674 702724 509
573953 631893 509
577337 30780 470
48469 993696 525
965034 61244 525
862475 552080 525
310700 28264 443
173367 825336 509
891503 500439 525
903864 837722 525
842375 801614 525
872924 999042 507
810856 102805 509
40748 376257 443
318691 705767 509
392168 228446 443
305391 555118 470
951890 698390 525
947002 622317 525
201350 968753 525
800218 914694 525
420491 115016 449
151190 91394 375
139776 977858 525
602146 713759 509
530756 296975 470
944128 310790 525
745044 922127 525
295477 546732 470
413217 630064 509
577397 954035 525
359100 222530 443
607275 432105 470
482777 359654 449
400530 655563 509
725789 125320 509
539690 585673 452
141464 656506 509
341039 111184 443
841986 879199 432
228652 931157 525
53569 35688 340
315055 756019 509
19808 513325 470
149147 374461 443
907733 373545 525
45661 571057 470
88679 386887 443
337623 296555 384
864380 107948 525
345564 24444 443
789507 605200 509
867341 22959 525
507593 811232 509
904781 346103 525
738799 87619 509
502971 955442 525
730535 333298 509
993551 649985 525
907020 211029 525
521951 181013 470
99327 731523 509
311881 140349 443
358217 458546 449
155800 741298 509
811057 557974 509
223510 493277 449
980006 317407 525
855017 269410 525
887199 584345 525
63875 408667 443
887278 881761 445
155499 399839 443
677643 847292 525
597663 187664 470
688693 908067 525
83224 407757 443
560538 239359 470
710297 484609 509
418255 286110 449
587314 325658 470
702256 936150 525
919058 257297 525
911586 677266 525
636203 10554 509
491719 554515 470
599208 509649 470
474391 736555 509
584973 571564 434
439967 304923 449
641063 574275 509
563474 759689 509
537320 364203 470
193225 622311 470
771992 609853 509
95280 956956 525
881252 204942 525
973329 432097 525
839885 194880 525
102162 522333 470
918361 36781 525
971589 317036 525
735110 818633 468
336577 210074 443
976965 993587 427
535843 210432 470
598706 83807 470
577507 70428 470
19080 160921 383
610119 24922 470
897492 175774 525
529825 340472 470
232807 670822 509
529034 782985 509
730496 743526 424
794141 299322 509
934423 642586 525
438726 722253 509
731174 352289 509
713749 624146 509
910829 32861 525
923128 18861 525
205495 348373 443
464172 449966 444
220389 736799 509
143873 591874 470
832611 859964 525
526286 197677 470
31374 224139 386
854970 919331 476
668839 215004 509
626846 555281 509
663752 474413 509
297531 843530 525
500305 125114 449
13098 555772 470
505386 903232 525
636183 333760 509
333948 484210 449
700723 56160 509
911275 65926 525
296400 620015 470
33610 596702 470
468393 290411 449
248847 69558 443
319727 398529 441
891925 433442 525
370703 641178 509
440199 927925 525
406237 505771 449
473455 574027 470
974602 788167 525
389561 801405 509
938136 660863 525
55409 687772 509
425241 739913 509
199193 993493 525
577220 102392 470
375807 378920 423
470420 222806 449
19947 906905 525
925204 363799 525
157347 586413 470
9757 152787 375
532397 820692 509
613410 147318 470
270419 941530 525
826365 54595 509
78238 99272 338
693575 128706 509
774212 81815 509
505615 277511 449
895755 158034 525
988279 43238 525
826528 381940 509
128922 92448 354
782534 742676 468
337761 23275 443
637548 251883 509
913607 589224 525
399932 922749 525
546315 408071 470
610063 230961 470
381020 565790 470
963135 359209 525
467217 617390 470
889082 387245 525
654939 573865 509
857116 307145 525
894298 200398 525
436708 4622 449
884678 386536 525
591731 732703 509
666259 504899 509
588587 491915 470
718979 805833 468
269025 101007 443
968994 156761 525
343904 332928 366
731757 357176 509
881690 490396 525
867637 420326 525
360819 483754 449
826079 310946 509
615482 832708 509
538720 825487 509
659267 38659 509
268396 250890 407
471157 630364 509
464541 186608 449
933688 277240 525
694629 271538 509
869189 102036 525
759864 811968 468
996194 111058 525
773201 487579 509
137410 228174 386
667278 36030 509
325932 94682 443
237505 110119 443
443284 133005 449
472732 960780 525
680837 532517 509
900630 156939 525
510906 218094 449
617321 858316 525
38096 515039 470
210684 147871 383
140239 596723 470
202341 200492 311
