1 10 20
100 200 125
201 210 89
900 1000 174
262181 897552 525
914071 436841 525
927276 513953 525
511464 779562 509
266317 54171 443
889344 90002 525
596047 895500 525
685413 684779 354
784149 216427 509
133146 968397 525
582506 516972 452
316934 919149 525
939901 366989 525
319503 639909 509
493533 97109 449
145094 852461 525
178268 65612 383
305972 917531 525
10932 841458 525
158742 187151 370
744000 874586 525
704252 313228 509
225625 170193 386
195430 757856 509
694912 135172 509
27780 70902 340
416957 999385 525
309470 774797 509
421665 282362 449
832675 590678 509
912209 741221 525
932677 785659 525
806171 676547 504
472561 291863 449
852209 262854 525
194154 921553 525
909264 985587 507
345395 189520 443
508992 708459 509
380476 114670 443
189890 157760 370
273961 351341 441
715716 555305 509
113220 453695 449
148410 331477 443
709991 21547 509
504485 580137 470
627619 555667 509
839239 52136 525
931214 687 525
315310 952255 525
997883 826183 525
77920 335557 443
938633 348637 525
531015 373405 470
197268 157735 370
810865 202575 509
526856 400954 470
658705 464349 509
866036 666272 525
377412 400398 436
912326 42280 525
763126 619570 509
965340 378308 525
159466 850730 525
66448 222542 386
787663 547188 509
560858 918326 525
357534 958745 525
815355 253593 509
883472 720763 525
639758 993831 525
355102 492335 449
647833 662753 429
419525 264458 449
57275 945830 525
854997 527256 525
145423 976175 525
838918 853020 419
205001 782546 509
428358 716472 509
263439 894362 525
123501 810893 509
261206 554604 470
733677 917172 525
393044 191708 443
220710 743068 509
124049 549815 470
356435 857803 525
371365 192010 443
317481 442180 449
662044 12640 509
793820 701700 504
17095 487730 449
256005 323984 407
408887 338888 441
206425 231334 443
78751 986495 525
939811 625043 525
3427 645751 509
8697 58456 340
29636 323770 443
146782 372799 443
593292 903228 525
226003 976448 525
225545 951532 525
578713 451069 470
342539 991322 525
116740 562431 470
110314 26592 354
18787 839023 525
208178 530995 470
816033 765074 468
663507 466945 509
494525 259517 449
975413 297022 525
273715 267634 407
310102 112179 443
207391 118629 383
818080 340797 509
824510 541843 509
846318 316581 525
494443 590123 470
926906 66640 525
991991 637947 525
657842 594029 509
948821 584874 525
804011 857712 525
412454 574129 470
553006 893400 525
521188 90169 470
759204 812994 468
709846 273300 509
420137 86039 449
203106 374080 443
548877 140069 470
334631 664523 509
525213 194616 470
920061 654389 525
247696 434351 449
483536 572797 470
130173 792616 509
905149 625776 525
448717 405238 449
451964 700783 509
263441 565916 470
151861 329098 443
826545 722353 468
462742 75865 449
100815 483738 449
947095 415964 525
324397 793900 509
858820 622919 525
309476 982199 525
665217 821388 504
209943 443053 449
525001 454130 470
327421 647527 509
690690 578239 509
510603 726699 509
597224 46791 470
557065 749479 509
271611 786900 509
492040 576804 470
385104 528039 470
895262 91283 525
563204 894245 525
428164 955356 525
62583 576036 470
854602 471664 525
285675 358943 441
984046 249597 525
697515 567044 509
890544 137479 525
280024 735028 509
618348 862242 525
863029 154985 525
280947 747587 509
866008 263122 525
934566 911521 476
967379 243429 525
346432 762750 509
395498 532914 470
709024 550677 509
852333 394747 525
684658 574196 509
534175 707394 509
557944 485589 470
48666 601955 470
329614 985277 525
532764 587396 452
919018 501647 525
92724 116538 354
776643 529457 509
233708 185685 443
493021 150935 449
449329 476959 444
245947 383788 441
2710 136537 354
789766 471399 509
725791 454798 509
724106 812317 468
276995 113955 443
3039 347653 443
694921 783468 504
602271 124570 470
380425 571010 470
998749 73114 525
7154 47072 324
894116 335317 525
190457 22312 383
121567 955119 525
40157 825264 509
289575 60067 443
696964 952077 525
985229 505749 525
138482 458637 449
171885 815441 509
528489 530268 377
233855 671955 509
802870 117135 509
284990 13973 443
278237 954133 525
794967 578890 509
623385 237683 470
412709 118995 449
956112 926854 507
10946 885990 525
726988 549057 509
970634 286577 525
237524 772216 509
574082 648981 509
633406 14143 509
183825 399029 443
536707 902374 525
502053 511013 426
212202 52527 383
569982 180530 470
117928 437891 449
793900 900519 525
993338 208104 525
386901 844372 525
373927 117007 443
982822 766542 525
639835 558059 509
536370 108183 470
151692 724147 509
168061 607218 470
763457 6369 509
911556 863679 476
