383 886 179
777 915 179
793 335 171
386 492 142
649 421 145
362 27 144
690 59 145
763 926 179
540 426 142
172 736 171
211 368 144
567 429 142
782 530 171
862 123 171
67 135 122
929 802 179
22 58 113
69 167 122
393 456 134
11 42 112
229 373 144
421 919 179
784 537 171
198 324 131
315 370 144
413 526 142
91 980 179
956 873 174
862 170 171
996 281 179
305 925 179
84 327 144
336 505 142
846 729 153
313 857 171
124 895 179
582 545 137
814 367 171
434 364 134
43 750 171
87 808 171
276 178 128
788 584 171
403 651 145
754 399 171
932 60 179
676 368 145
739 12 171
226 586 144
94 539 144
795 570 171
434 378 134
467 601 142
97 902 179
317 492 144
652 756 171
301 280 118
286 441 144
865 689 171
444 619 142
440 729 171
31 117 119
97 771 171
481 675 145
709 927 179
567 856 171
497 353 142
586 965 179
306 683 145
219 624 144
528 871 179
732 829 153
503 19 144
270 368 144
708 715 65
340 149 144
796 723 153
618 245 144
846 451 171
921 555 179
379 488 142
764 228 171
841 350 171
193 500 144
34 764 171
124 914 179
987 856 179
743 491 171
227 365 144
859 936 179
432 551 142
437 228 144
275 407 144
474 121 144
858 395 171
29 237 128
235 793 171
818 428 171
143 11 122
928 529 179
776 404 171
443 763 171
613 538 137
606 840 171
904 818 179
128 688 145
369 917 179
917 996 174
324 743 171
470 183 144
490 499 142
772 725 153
644 590 132
505 139 144
954 786 179
669 82 145
542 464 142
197 507 144
355 804 171
348 611 142
622 828 171
299 343 144
746 568 171
340 422 134
311 810 171
605 801 171
661 730 171
878 305 179
320 736 171
444 626 142
522 465 142
708 416 171
282 258 123
924 637 179
62 624 144
600 36 144
452 899 179
379 550 142
468 71 144
973 131 179
881 930 148
933 894 130
660 163 145
199 981 179
899 996 174
959 773 179
813 668 171
190 95 125
926 466 179
84 340 144
90 684 145
376 542 142
936 107 179
445 756 171
179 418 144
887 412 179
348 172 144
659 9 145
336 210 144
342 587 142
206 301 128
713 372 171
321 255 131
819 599 171
721 904 179
939 811 179
940 667 179
705 228 171
127 150 122
984 658 179
920 224 179
422 269 144
396 81 144
630 84 144
292 972 179
672 850 171
625 385 142
222 299 128
640 42 144
898 713 179
298 190 128
524 590 137
209 581 144
819 336 171
732 155 171
994 4 179
379 769 171
273 776 171
850 255 171
860 142 171
579 884 179
993 205 179
621 567 132
504 613 137
961 754 179
326 259 131
944 202 179
202 506 144
784 21 171
842 868 148
