1 10 20
100 200 125
201 210 89
900 1000 174
1 1000 179
800 900 179
11 99 119
100 105 88
1800 2000 175
345 567 142
99999 100000 227
8000 10000 260
8000 100000 351
1 99999 351
16807 475249 449
650073 943658 525
108930 211272 383
27544 850878 525
777923 807987 468
522503 531729 408
378840 542612 470
544303 833169 509
817709 899097 525
807826 929267 525
723810 877633 525
580979 901393 525
819336 894091 525
640194 921153 525
616708 788124 509
702196 727722 504
454666 728549 509
118024 797801 509
806853 847408 525
308228 374933 441
260298 938981 525
28635 408013 443
623865 739063 509
554536 724115 509
220094 446501 449
546517 934195 525
30105 810404 509
319451 782188 509
821123 936716 525
130337 354438 443
53144 851501 525
844897 955828 507
111137 619358 470
153177 982397 525
722294 946231 525
959745 973671 458
859901 936098 476
649095 975319 525
583454 948905 525
586126 935238 525
329094 896220 525
987844 997439 365
829874 918984 525
113755 639789 509
851407 863108 419
963249 995223 458
244054 588260 470
76737 991545 525
747317 837525 468
204200 421564 449
960597 983133 458
620591 623720 372
48762 306633 443
976197 998877 440
637304 979358 525
861200 984926 507
545035 774857 509
561113 929593 525
601360 968418 525
25357 342585 443
313729 721015 509
776563 860917 525
786643 819419 468
62967 547747 470
245269 855395 525
423303 719103 509
711748 739824 424
285132 300973 389
959603 972220 458
739911 815166 468
204356 359304 443
659860 901720 525
866116 951661 507
77045 303120 443
620240 769627 509
685350 853711 525
535563 629594 509
207533 401727 443
307827 398795 441
919531 967103 507
34324 980108 525
44936 517015 470
43710 963216 525
301905 775973 509
767781 882720 525
270791 481169 449
297865 715827 509
329536 616728 470
357125 580167 470
789949 958028 525
333029 933754 525
486540 846865 525
87011 615252 470
553064 728192 509
24710 454747 449
463037 701299 509
368447 949715 525
241693 259579 363
567129 574958 377
114033 211800 383
165089 535217 470
880846 943788 507
428359 765235 509
383912 745989 509
683784 972615 525
167045 665976 509
326661 365825 441
182819 271631 443
422903 936798 525
92639 914004 525
909503 932141 476
961654 981921 458
846043 922431 476
977992 994537 427
329870 387561 441
32581 374165 443
545802 609847 452
972377 979010 383
943819 974390 458
536152 695014 509
959044 985652 458
485092 957316 525
766714 958060 525
807450 891847 525
199196 902501 525
188234 270571 443
377448 687875 509
817253 973471 525
738820 863342 525
398138 698828 509
998393 999452 396
940470 976029 458
363501 707656 509
550930 966420 525
996362 997036 352
296202 318478 384
437123 544088 470
82574 984509 525
423596 915123 525
368762 923879 525
944155 966194 414
940527 948910 383
36162 553266 470
303806 745108 509
167507 962173 525
787537 980557 525
943571 948438 383
972434 986481 427
792840 834620 468
238850 566975 470
935362 947070 507
302438 769142 509
308115 827177 509
438734 682267 509
539874 557580 452
517390 563006 452
725881 832272 468
721355 741975 424
60620 247375 443
901986 972595 507
914783 920176 432
358883 525082 470
499827 899151 525
542599 623790 452
79595 118396 354
653661 828231 504
232725 880606 525
884379 963154 507
231506 463219 449
874717 911865 476
979805 980039 246
424059 953748 525
902744 995177 507
466737 827491 509
579042 779777 509
12004 34382 311
725556 900175 525
783133 900670 525
624270 905353 525
49328 270128 443
535873 891082 525
293771 773455 509
607621 828934 509
695847 958328 525
912488 937747 476
767895 887383 525
474576 615943 470
960836 989596 458
222903 928381 525
945281 966429 414
708707 973414 525
657617 982638 525
147526 719545 509
951357 993879 458
933551 985474 507
390040 878776 525
805589 829841 450
148409 750158 509
20935 603765 470
464761 730272 509
481219 506194 426
448803 858131 525
700516 723792 504
321172 990215 525
875229 883513 432
577143 681480 509
556509 565049 421
59511 851209 525
18383 100848 351
215785 494307 449
670760 928566 525
938585 970763 507
322781 423582 449
685467 812551 504
116461 605895 470
721617 762429 424
369627 876991 525
592286 945460 525
13456 154992 375
379001 980384 525
51970 483513 449
782670 783985 331
486120 739357 509
667245 848199 525
659702 740137 504
189829 567799 470
554618 868805 525
810815 818315 406
57129 823024 509
659915 850160 525
269778 974279 525
370371 385324 423
305445 876558 525
513954 554608 452
949621 989860 458
459635 696006 509
446605 672708 509
565777 956993 525
276544 299416 389
291624 377061 441
341985 855638 525
424203 647013 509
95295 484851 449
554183 917857 525
447800 990356 525
921089 921801 339
874499 978010 507
326674 598295 470
111528 479691 449
64647 513293 470
892520 956168 507
352415 868524 525
213053 394764 443
282487 855795 525
88519 642693 509
354806 709505 509
492231 585378 470
241349 451230 449
904209 914632 476
790974 987270 525
214553 912911 525
159388 943164 525
659938 764688 504
780607 892290 525
869860 984027 507
626521 891439 525
35740 893364 525
95777 249136 443
181005 303011 443
611684 693159 509
281539 342649 389
563899 621974 447
791990 810417 468
4101 920365 525
258248 620774 470
782332 989258 525
159002 305310 443
820719 890848 525
534008 569750 452
750933 900037 525
492632 749694 509
455593 712811 509
375905 958553 525
75574 984664 525
91907 373802 443
290814 384869 441
155439 881087 525
208595 324448 443
704067 845322 525
195437 625571 470
699896 977873 525
270107 691920 509
956292 986685 458
779302 951252 525
894388 920628 476
312311 406343 441
755544 898387 525
805457 843144 525
929228 995239 507
988723 998401 440
